com/games/campaign_validation/ApplicationConfiguration.class
com/games/campaign_validation/dto/OfferCampaign.class
com/games/campaign_validation/email/Email.class
com/games/campaign_validation/dto/CmCampaigns.class
com/games/campaign_validation/MongoUtil.class
com/games/campaign_validation/JavaMailSenderConfig.class
com/games/campaign_validation/EmailService.class
com/games/campaign_validation/MongoConnection.class
com/games/campaign_validation/email/Recipient.class
com/games/campaign_validation/SendMail.class
com/games/campaign_validation/CampaignValidationSchedular.class
com/games/campaign_validation/dto/ReCampaigns.class
com/games/campaign_validation/CampaignValidationController.class
